<?xml version="1.0" encoding="UTF-8" standalone="no"?>
<svg
   xmlns:dc="http://purl.org/dc/elements/1.1/"
   xmlns:cc="http://creativecommons.org/ns#"
   xmlns:rdf="http://www.w3.org/1999/02/22-rdf-syntax-ns#"
   xmlns:svg="http://www.w3.org/2000/svg"
   xmlns="http://www.w3.org/2000/svg"
   xmlns:sodipodi="http://sodipodi.sourceforge.net/DTD/sodipodi-0.dtd"
   xmlns:inkscape="http://www.inkscape.org/namespaces/inkscape"
   version="1.0"
   x="0px"
   y="0px"
   width="100px"
   height="100px"
   viewBox="0 0 100 100"
   enable-background="new 0 0 100 100"
   xml:space="preserve"
   id="svg2"
   inkscape:version="0.48.4 r9939"
   sodipodi:docname="add.svg"><metadata
     id="metadata16"><rdf:RDF><cc:Work
         rdf:about=""><dc:format>image/svg+xml</dc:format><dc:type
           rdf:resource="http://purl.org/dc/dcmitype/StillImage" /></cc:Work></rdf:RDF></metadata><defs
     id="defs14" /><sodipodi:namedview
     pagecolor="#ffffff"
     bordercolor="#666666"
     borderopacity="1"
     objecttolerance="10"
     gridtolerance="10"
     guidetolerance="10"
     inkscape:pageopacity="0"
     inkscape:pageshadow="2"
     inkscape:window-width="1920"
     inkscape:window-height="1056"
     id="namedview12"
     showgrid="false"
     inkscape:zoom="2.36"
     inkscape:cx="50.847458"
     inkscape:cy="50"
     inkscape:window-x="0"
     inkscape:window-y="0"
     inkscape:window-maximized="1"
     inkscape:current-layer="svg2" /><g
     id="Layer_1" /><g
     id="_x31__varka"
     transform="matrix(1.64344,0,0,1.64344,-32.172003,-32.172003)"><g
       id="g6"><polygon
         points="32,50 41,50 41,59 47,59 47,50 56,50 56,44 47,44 47,35 41,35 41,44 32,44 "
         id="polygon8"
         style="fill:#000000" /><path
         d="M 71.062,23 H 28.938 C 24.012,23 20,27.012 20,31.939 V 68.06 C 20,72.988 24.012,77 28.938,77 H 62 L 80,59.002 V 31.939 C 80,27.012 75.988,23 71.062,23 z M 65,66.758 V 64.94 C 65,63.318 66.318,62 67.938,62 h 1.816 L 65,66.758 z M 74,56.514 C 73.227,56.211 72.281,56 71.062,56 H 67.937 C 63.012,56 59,60.012 59,64.939 v 3.121 c 0,1.16 0.195,2.125 0.512,2.939 H 28.938 C 27.318,71 26,69.682 26,68.061 V 31.939 C 26,30.318 27.318,29 28.938,29 H 71.063 C 72.682,29 74,30.318 74,31.939 v 24.575 z"
         id="path10"
         inkscape:connector-curvature="0"
         style="fill:#000000" /></g></g></svg>